%YAML 1.1
%TAG !u! tag:unity3d.com,2011:
--- !u!21 &2100000
Material:
  serializedVersion: 6
  m_ObjectHideFlags: 0
  m_CorrespondingSourceObject: {fileID: 0}
  m_PrefabInstance: {fileID: 0}
  m_PrefabAsset: {fileID: 0}
  m_Name: CoM_Halo_Arena_level01-level01_5
  m_Shader: {fileID: 4800000, guid: 5bcc07681e976d04c8343b18ef36aedb, type: 3}
  m_ShaderKeywords: 
  m_LightmapFlags: 5
  m_EnableInstancingVariants: 0
  m_DoubleSidedGI: 0
  m_CustomRenderQueue: -1
  stringTagMap: {}
  disabledShaderPasses: []
  m_SavedProperties:
    serializedVersion: 3
    m_TexEnvs:
    - _BlendTex1:
        m_Texture: {fileID: 2800000, guid: 2ad35dc4b180218546311ec1109addf3, type: 3}
        m_Scale: {x: 1, y: 1}
        m_Offset: {x: 0, y: 0}
    - _LightMapBright:
        m_Texture: {fileID: 0}
        m_Scale: {x: 1, y: 1}
        m_Offset: {x: 0, y: 0}
    - _MainTex:
        m_Texture: {fileID: 2800000, guid: 292e9619ed9f6dbd41a449001f2fea6f, type: 3}
        m_Scale: {x: 15, y: 15}
        m_Offset: {x: 0, y: 0}
    - _MainTex1:
        m_Texture: {fileID: 2800000, guid: 2ad35dc4b180218546311ec1109addf3, type: 3}
        m_Scale: {x: 1, y: 1}
        m_Offset: {x: 0, y: 0}
    m_Floats: []
    m_Colors:
    - _Color: {r: 0.588, g: 0.588, b: 0.588, a: 1}
  m_BuildTextureStacks: []
