%YAML 1.1
%TAG !u! tag:unity3d.com,2011:
--- !u!21 &2100000
Material:
  serializedVersion: 6
  m_ObjectHideFlags: 0
  m_CorrespondingSourceObject: {fileID: 0}
  m_PrefabInstance: {fileID: 0}
  m_PrefabAsset: {fileID: 0}
  m_Name: Ghost_pumpkin_Burst_05_08
  m_Shader: {fileID: 4800000, guid: 0cafc984d966eb14db5ec3e7bc1c61c2, type: 3}
  m_ShaderKeywords: 
  m_LightmapFlags: 5
  m_EnableInstancingVariants: 0
  m_DoubleSidedGI: 0
  m_CustomRenderQueue: -1
  stringTagMap: {}
  disabledShaderPasses: []
  m_SavedProperties:
    serializedVersion: 3
    m_TexEnvs:
    - _MainTex:
        m_Texture: {fileID: 2800000, guid: 00badc5c21effb834c03dc39db2627b3, type: 3}
        m_Scale: {x: 1, y: 1}
        m_Offset: {x: 0, y: 0}
    m_Floats:
    - _InvFade: 1
    - _Outline: 0.1
    m_Colors:
    - _AtmoColor: {r: 0.5, g: 0.5, b: 1, a: 1}
    - _Color: {r: 0.1044776, g: 0.1044776, b: 0.1044776, a: 0.4705882}
    - _OutlineColor: {r: 0, g: 0, b: 0, a: 1}
    - _TintColor: {r: 0.5, g: 0.5, b: 0.5, a: 0.5}
  m_BuildTextureStacks: []
