%YAML 1.1
%TAG !u! tag:unity3d.com,2011:
--- !u!21 &2100000
Material:
  serializedVersion: 6
  m_ObjectHideFlags: 0
  m_CorrespondingSourceObject: {fileID: 0}
  m_PrefabInstance: {fileID: 0}
  m_PrefabAsset: {fileID: 0}
  m_Name: Ninja_avatar_01
  m_Shader: {fileID: 4800000, guid: 02c6c8ae249086e4396260b89b67c0a8, type: 3}
  m_ShaderKeywords: 
  m_LightmapFlags: 5
  m_EnableInstancingVariants: 0
  m_DoubleSidedGI: 0
  m_CustomRenderQueue: -1
  stringTagMap: {}
  disabledShaderPasses: []
  m_SavedProperties:
    serializedVersion: 3
    m_TexEnvs:
    - _MainTex:
        m_Texture: {fileID: 2800000, guid: 1718e4fa97cf33b042b6b03d578fe2c6, type: 3}
        m_Scale: {x: 1, y: 1}
        m_Offset: {x: 0, y: 0}
    m_Floats: []
    m_Colors:
    - _AtmoColor: {r: 0.1591695, g: 0.1645626, b: 0.9411765, a: 0.4117647}
    - _Color: {r: 0.2794118, g: 0.2054498, b: 0.2054498, a: 0.5764706}
  m_BuildTextureStacks: []
