%YAML 1.1
%TAG !u! tag:unity3d.com,2011:
--- !u!21 &2100000
Material:
  serializedVersion: 6
  m_ObjectHideFlags: 0
  m_CorrespondingSourceObject: {fileID: 0}
  m_PrefabInstance: {fileID: 0}
  m_PrefabAsset: {fileID: 0}
  m_Name: weapon_04_01_04
  m_Shader: {fileID: 4800000, guid: 0cafc984d966eb14db5ec3e7bc1c61c2, type: 3}
  m_ShaderKeywords: 
  m_LightmapFlags: 5
  m_EnableInstancingVariants: 0
  m_DoubleSidedGI: 0
  m_CustomRenderQueue: -1
  stringTagMap: {}
  disabledShaderPasses: []
  m_SavedProperties:
    serializedVersion: 3
    m_TexEnvs:
    - _MainTex:
        m_Texture: {fileID: 2800000, guid: e1ad13ea97565abe45e3c8f8db617e10, type: 3}
        m_Scale: {x: 1, y: 1}
        m_Offset: {x: 0, y: 0}
    m_Floats:
    - _InvFade: 1
    m_Colors:
    - _Color: {r: 1, g: 0.7990815, b: 0.4253731, a: 0.8039216}
    - _TintColor: {r: 1, g: 0.4392157, b: 0, a: 0.9411765}
  m_BuildTextureStacks: []
